{
    "name": "MVC",
    "data": {
        "score": 1
    },
    "children": [
        {
            "name": "Sitecore",
            "data": {
                "score": 0.9615345597267151
            },
            "children": [
                {
                    "name": "Umbraco",
                    "data": {
                        "score": 0.987149178981781
                    },
                    "children": []
                },
                {
                    "name": "Sitefinity",
                    "data": {
                        "score": 0.9862177968025208
                    },
                    "children": []
                },
                {
                    "name": "Kentico",
                    "data": {
                        "score": 0.9840802550315857
                    },
                    "children": []
                },
                {
                    "name": "Episerver",
                    "data": {
                        "score": 0.9751810431480408
                    },
                    "children": []
                },
                {
                    "name": "MVC",
                    "data": {
                        "score": 0.9615345597267151
                    },
                    "children": []
                }
            ]
        },
        {
            "name": "CSS",
            "data": {
                "score": 0.9564458131790161
            },
            "children": [
                {
                    "name": "HTML",
                    "data": {
                        "score": 0.9887759685516357
                    },
                    "children": []
                },
                {
                    "name": "JavaScript",
                    "data": {
                        "score": 0.9822450876235962
                    },
                    "children": []
                },
                {
                    "name": "Web Development",
                    "data": {
                        "score": 0.9643405675888062
                    },
                    "children": []
                },
                {
                    "name": "SASS",
                    "data": {
                        "score": 0.9581828713417053
                    },
                    "children": []
                },
                {
                    "name": "MVC",
                    "data": {
                        "score": 0.9564457535743713
                    },
                    "children": []
                }
            ]
        },
        {
            "name": "Episerver",
            "data": {
                "score": 0.9525248408317566
            },
            "children": [
                {
                    "name": "Sitecore",
                    "data": {
                        "score": 0.9751810431480408
                    },
                    "children": []
                },
                {
                    "name": "Umbraco",
                    "data": {
                        "score": 0.9694950580596924
                    },
                    "children": []
                },
                {
                    "name": "Sitefinity",
                    "data": {
                        "score": 0.9685420393943787
                    },
                    "children": []
                },
                {
                    "name": "Kentico",
                    "data": {
                        "score": 0.9681457877159119
                    },
                    "children": []
                },
                {
                    "name": "Requirements Analysis",
                    "data": {
                        "score": 0.9606984257698059
                    },
                    "children": []
                }
            ]
        },
        {
            "name": "HTML",
            "data": {
                "score": 0.9515330791473389
            },
            "children": [
                {
                    "name": "CSS",
                    "data": {
                        "score": 0.9887759685516357
                    },
                    "children": []
                },
                {
                    "name": "JavaScript",
                    "data": {
                        "score": 0.9770192503929138
                    },
                    "children": []
                },
                {
                    "name": "MVC",
                    "data": {
                        "score": 0.9515332579612732
                    },
                    "children": []
                },
                {
                    "name": "Web Development",
                    "data": {
                        "score": 0.9486067295074463
                    },
                    "children": []
                },
                {
                    "name": "ASP.MVC",
                    "data": {
                        "score": 0.9459484219551086
                    },
                    "children": []
                }
            ]
        },
        {
            "name": "Umbraco",
            "data": {
                "score": 0.939723789691925
            },
            "children": [
                {
                    "name": "Sitefinity",
                    "data": {
                        "score": 0.9994444251060486
                    },
                    "children": []
                },
                {
                    "name": "Kentico",
                    "data": {
                        "score": 0.9993138909339905
                    },
                    "children": []
                },
                {
                    "name": "Sitecore",
                    "data": {
                        "score": 0.9871491193771362
                    },
                    "children": []
                },
                {
                    "name": "Episerver",
                    "data": {
                        "score": 0.9694951772689819
                    },
                    "children": []
                },
                {
                    "name": "Requirements Analysis",
                    "data": {
                        "score": 0.9581629633903503
                    },
                    "children": []
                }
            ]
        }
    ]
}